%YAML 1.1
%TAG !u! tag:unity3d.com,2011:
--- !u!1001 &4923693319040652471
PrefabInstance:
  m_ObjectHideFlags: 0
  serializedVersion: 2
  m_Modification:
    serializedVersion: 3
    m_TransformParent: {fileID: 4898040706262267559}
    m_Modifications:
    - target: {fileID: 100000, guid: 632f91533c27a3649bf1ee3d3e2770c8, type: 3}
      propertyPath: m_Name
      value: Items_ChocolateBar_01
      objectReference: {fileID: 0}
    - target: {fileID: 400000, guid: 632f91533c27a3649bf1ee3d3e2770c8, type: 3}
      propertyPath: m_LocalPosition.x
      value: -0
      objectReference: {fileID: 0}
    - target: {fileID: 400000, guid: 632f91533c27a3649bf1ee3d3e2770c8, type: 3}
      propertyPath: m_LocalPosition.y
      value: 0.066
      objectReference: {fileID: 0}
    - target: {fileID: 400000, guid: 632f91533c27a3649bf1ee3d3e2770c8, type: 3}
      propertyPath: m_LocalPosition.z
      value: 0
      objectReference: {fileID: 0}
    - target: {fileID: 400000, guid: 632f91533c27a3649bf1ee3d3e2770c8, type: 3}
      propertyPath: m_LocalRotation.w
      value: 1
      objectReference: {fileID: 0}
    - target: {fileID: 400000, guid: 632f91533c27a3649bf1ee3d3e2770c8, type: 3}
      propertyPath: m_LocalRotation.x
      value: 0
      objectReference: {fileID: 0}
    - target: {fileID: 400000, guid: 632f91533c27a3649bf1ee3d3e2770c8, type: 3}
      propertyPath: m_LocalRotation.y
      value: -0
      objectReference: {fileID: 0}
    - target: {fileID: 400000, guid: 632f91533c27a3649bf1ee3d3e2770c8, type: 3}
      propertyPath: m_LocalRotation.z
      value: -0
      objectReference: {fileID: 0}
    - target: {fileID: 400000, guid: 632f91533c27a3649bf1ee3d3e2770c8, type: 3}
      propertyPath: m_LocalEulerAnglesHint.x
      value: 0
      objectReference: {fileID: 0}
    - target: {fileID: 400000, guid: 632f91533c27a3649bf1ee3d3e2770c8, type: 3}
      propertyPath: m_LocalEulerAnglesHint.y
      value: 0
      objectReference: {fileID: 0}
    - target: {fileID: 400000, guid: 632f91533c27a3649bf1ee3d3e2770c8, type: 3}
      propertyPath: m_LocalEulerAnglesHint.z
      value: 0
      objectReference: {fileID: 0}
    m_RemovedComponents: []
    m_RemovedGameObjects: []
    m_AddedGameObjects: []
    m_AddedComponents: []
  m_SourcePrefab: {fileID: 100100000, guid: 632f91533c27a3649bf1ee3d3e2770c8, type: 3}
--- !u!4 &4923693319041044023 stripped
Transform:
  m_CorrespondingSourceObject: {fileID: 400000, guid: 632f91533c27a3649bf1ee3d3e2770c8,
    type: 3}
  m_PrefabInstance: {fileID: 4923693319040652471}
  m_PrefabAsset: {fileID: 0}
--- !u!1001 &5066540717174238028
PrefabInstance:
  m_ObjectHideFlags: 0
  serializedVersion: 2
  m_Modification:
    serializedVersion: 3
    m_TransformParent: {fileID: 0}
    m_Modifications:
    - target: {fileID: 411694408238587371, guid: bed2f4797e7174d8cba466662e36720e,
        type: 3}
      propertyPath: m_LocalPosition.x
      value: 0
      objectReference: {fileID: 0}
    - target: {fileID: 411694408238587371, guid: bed2f4797e7174d8cba466662e36720e,
        type: 3}
      propertyPath: m_LocalPosition.y
      value: 0
      objectReference: {fileID: 0}
    - target: {fileID: 411694408238587371, guid: bed2f4797e7174d8cba466662e36720e,
        type: 3}
      propertyPath: m_LocalPosition.z
      value: 0
      objectReference: {fileID: 0}
    - target: {fileID: 411694408238587371, guid: bed2f4797e7174d8cba466662e36720e,
        type: 3}
      propertyPath: m_LocalRotation.w
      value: 1
      objectReference: {fileID: 0}
    - target: {fileID: 411694408238587371, guid: bed2f4797e7174d8cba466662e36720e,
        type: 3}
      propertyPath: m_LocalRotation.x
      value: 0
      objectReference: {fileID: 0}
    - target: {fileID: 411694408238587371, guid: bed2f4797e7174d8cba466662e36720e,
        type: 3}
      propertyPath: m_LocalRotation.y
      value: 0
      objectReference: {fileID: 0}
    - target: {fileID: 411694408238587371, guid: bed2f4797e7174d8cba466662e36720e,
        type: 3}
      propertyPath: m_LocalRotation.z
      value: 0
      objectReference: {fileID: 0}
    - target: {fileID: 411694408238587371, guid: bed2f4797e7174d8cba466662e36720e,
        type: 3}
      propertyPath: m_LocalEulerAnglesHint.x
      value: 0
      objectReference: {fileID: 0}
    - target: {fileID: 411694408238587371, guid: bed2f4797e7174d8cba466662e36720e,
        type: 3}
      propertyPath: m_LocalEulerAnglesHint.y
      value: 0
      objectReference: {fileID: 0}
    - target: {fileID: 411694408238587371, guid: bed2f4797e7174d8cba466662e36720e,
        type: 3}
      propertyPath: m_LocalEulerAnglesHint.z
      value: 0
      objectReference: {fileID: 0}
    - target: {fileID: 2821502482890941588, guid: bed2f4797e7174d8cba466662e36720e,
        type: 3}
      propertyPath: m_LocalPosition.y
      value: 0.143
      objectReference: {fileID: 0}
    - target: {fileID: 4836416262563859777, guid: bed2f4797e7174d8cba466662e36720e,
        type: 3}
      propertyPath: m_Name
      value: Pickable Item - ChocolateBar 1
      objectReference: {fileID: 0}
    - target: {fileID: 7075964862831897103, guid: bed2f4797e7174d8cba466662e36720e,
        type: 3}
      propertyPath: m_IsActive
      value: 0
      objectReference: {fileID: 0}
    m_RemovedComponents: []
    m_RemovedGameObjects:
    - {fileID: 7075964862831897103, guid: bed2f4797e7174d8cba466662e36720e, type: 3}
    m_AddedGameObjects:
    - targetCorrespondingSourceObject: {fileID: 411694408238587371, guid: bed2f4797e7174d8cba466662e36720e,
        type: 3}
      insertIndex: -1
      addedObject: {fileID: 4923693319041044023}
    m_AddedComponents: []
  m_SourcePrefab: {fileID: 100100000, guid: bed2f4797e7174d8cba466662e36720e, type: 3}
--- !u!4 &4898040706262267559 stripped
Transform:
  m_CorrespondingSourceObject: {fileID: 411694408238587371, guid: bed2f4797e7174d8cba466662e36720e,
    type: 3}
  m_PrefabInstance: {fileID: 5066540717174238028}
  m_PrefabAsset: {fileID: 0}
