%YAML 1.1
%TAG !u! tag:unity3d.com,2011:
--- !u!1001 &1900151636591878854
PrefabInstance:
  m_ObjectHideFlags: 0
  serializedVersion: 2
  m_Modification:
    serializedVersion: 3
    m_TransformParent: {fileID: 0}
    m_Modifications:
    - target: {fileID: 746166083777180056, guid: 8d3e7a9002f8a4d3fbebaba00f588e56,
        type: 3}
      propertyPath: m_LocalPosition.x
      value: 0
      objectReference: {fileID: 0}
    - target: {fileID: 746166083777180056, guid: 8d3e7a9002f8a4d3fbebaba00f588e56,
        type: 3}
      propertyPath: m_LocalPosition.y
      value: 0
      objectReference: {fileID: 0}
    - target: {fileID: 746166083777180056, guid: 8d3e7a9002f8a4d3fbebaba00f588e56,
        type: 3}
      propertyPath: m_LocalPosition.z
      value: 0
      objectReference: {fileID: 0}
    - target: {fileID: 746166083777180056, guid: 8d3e7a9002f8a4d3fbebaba00f588e56,
        type: 3}
      propertyPath: m_LocalRotation.w
      value: 1
      objectReference: {fileID: 0}
    - target: {fileID: 746166083777180056, guid: 8d3e7a9002f8a4d3fbebaba00f588e56,
        type: 3}
      propertyPath: m_LocalRotation.x
      value: -0
      objectReference: {fileID: 0}
    - target: {fileID: 746166083777180056, guid: 8d3e7a9002f8a4d3fbebaba00f588e56,
        type: 3}
      propertyPath: m_LocalRotation.y
      value: -0
      objectReference: {fileID: 0}
    - target: {fileID: 746166083777180056, guid: 8d3e7a9002f8a4d3fbebaba00f588e56,
        type: 3}
      propertyPath: m_LocalRotation.z
      value: -0
      objectReference: {fileID: 0}
    - target: {fileID: 746166083777180056, guid: 8d3e7a9002f8a4d3fbebaba00f588e56,
        type: 3}
      propertyPath: m_LocalEulerAnglesHint.x
      value: 0
      objectReference: {fileID: 0}
    - target: {fileID: 746166083777180056, guid: 8d3e7a9002f8a4d3fbebaba00f588e56,
        type: 3}
      propertyPath: m_LocalEulerAnglesHint.y
      value: 0
      objectReference: {fileID: 0}
    - target: {fileID: 746166083777180056, guid: 8d3e7a9002f8a4d3fbebaba00f588e56,
        type: 3}
      propertyPath: m_LocalEulerAnglesHint.z
      value: 0
      objectReference: {fileID: 0}
    - target: {fileID: 2019280017404704138, guid: 8d3e7a9002f8a4d3fbebaba00f588e56,
        type: 3}
      propertyPath: m_LocalPosition.y
      value: 0.7
      objectReference: {fileID: 0}
    - target: {fileID: 2019280017404704138, guid: 8d3e7a9002f8a4d3fbebaba00f588e56,
        type: 3}
      propertyPath: m_LocalPosition.z
      value: -0.004
      objectReference: {fileID: 0}
    - target: {fileID: 3123922236746822448, guid: 8d3e7a9002f8a4d3fbebaba00f588e56,
        type: 3}
      propertyPath: m_Name
      value: Put Down Area - Bucket 1
      objectReference: {fileID: 0}
    m_RemovedComponents: []
    m_RemovedGameObjects:
    - {fileID: 4475161305805695333, guid: 8d3e7a9002f8a4d3fbebaba00f588e56, type: 3}
    m_AddedGameObjects:
    - targetCorrespondingSourceObject: {fileID: 746166083777180056, guid: 8d3e7a9002f8a4d3fbebaba00f588e56,
        type: 3}
      insertIndex: -1
      addedObject: {fileID: 2736524432791901803}
    m_AddedComponents: []
  m_SourcePrefab: {fileID: 100100000, guid: 8d3e7a9002f8a4d3fbebaba00f588e56, type: 3}
--- !u!4 &1154148289412862814 stripped
Transform:
  m_CorrespondingSourceObject: {fileID: 746166083777180056, guid: 8d3e7a9002f8a4d3fbebaba00f588e56,
    type: 3}
  m_PrefabInstance: {fileID: 1900151636591878854}
  m_PrefabAsset: {fileID: 0}
--- !u!1001 &2736524432791768299
PrefabInstance:
  m_ObjectHideFlags: 0
  serializedVersion: 2
  m_Modification:
    serializedVersion: 3
    m_TransformParent: {fileID: 1154148289412862814}
    m_Modifications:
    - target: {fileID: 100000, guid: d12946cd1e95ea84885599e80b27b876, type: 3}
      propertyPath: m_Name
      value: Items_Bucket_01
      objectReference: {fileID: 0}
    - target: {fileID: 400000, guid: d12946cd1e95ea84885599e80b27b876, type: 3}
      propertyPath: m_LocalScale.x
      value: 2.5
      objectReference: {fileID: 0}
    - target: {fileID: 400000, guid: d12946cd1e95ea84885599e80b27b876, type: 3}
      propertyPath: m_LocalScale.y
      value: 2.5
      objectReference: {fileID: 0}
    - target: {fileID: 400000, guid: d12946cd1e95ea84885599e80b27b876, type: 3}
      propertyPath: m_LocalScale.z
      value: 2.5
      objectReference: {fileID: 0}
    - target: {fileID: 400000, guid: d12946cd1e95ea84885599e80b27b876, type: 3}
      propertyPath: m_LocalPosition.x
      value: 0
      objectReference: {fileID: 0}
    - target: {fileID: 400000, guid: d12946cd1e95ea84885599e80b27b876, type: 3}
      propertyPath: m_LocalPosition.y
      value: 0.896
      objectReference: {fileID: 0}
    - target: {fileID: 400000, guid: d12946cd1e95ea84885599e80b27b876, type: 3}
      propertyPath: m_LocalPosition.z
      value: 0
      objectReference: {fileID: 0}
    - target: {fileID: 400000, guid: d12946cd1e95ea84885599e80b27b876, type: 3}
      propertyPath: m_LocalRotation.w
      value: 1
      objectReference: {fileID: 0}
    - target: {fileID: 400000, guid: d12946cd1e95ea84885599e80b27b876, type: 3}
      propertyPath: m_LocalRotation.x
      value: 0
      objectReference: {fileID: 0}
    - target: {fileID: 400000, guid: d12946cd1e95ea84885599e80b27b876, type: 3}
      propertyPath: m_LocalRotation.y
      value: -0
      objectReference: {fileID: 0}
    - target: {fileID: 400000, guid: d12946cd1e95ea84885599e80b27b876, type: 3}
      propertyPath: m_LocalRotation.z
      value: -0
      objectReference: {fileID: 0}
    - target: {fileID: 400000, guid: d12946cd1e95ea84885599e80b27b876, type: 3}
      propertyPath: m_LocalEulerAnglesHint.x
      value: 0
      objectReference: {fileID: 0}
    - target: {fileID: 400000, guid: d12946cd1e95ea84885599e80b27b876, type: 3}
      propertyPath: m_LocalEulerAnglesHint.y
      value: 0
      objectReference: {fileID: 0}
    - target: {fileID: 400000, guid: d12946cd1e95ea84885599e80b27b876, type: 3}
      propertyPath: m_LocalEulerAnglesHint.z
      value: 0
      objectReference: {fileID: 0}
    - target: {fileID: 400000, guid: d12946cd1e95ea84885599e80b27b876, type: 3}
      propertyPath: m_ConstrainProportionsScale
      value: 1
      objectReference: {fileID: 0}
    m_RemovedComponents: []
    m_RemovedGameObjects: []
    m_AddedGameObjects: []
    m_AddedComponents:
    - targetCorrespondingSourceObject: {fileID: 100000, guid: d12946cd1e95ea84885599e80b27b876,
        type: 3}
      insertIndex: -1
      addedObject: {fileID: 4033992886525785634}
  m_SourcePrefab: {fileID: 100100000, guid: d12946cd1e95ea84885599e80b27b876, type: 3}
--- !u!1 &2736524432791734859 stripped
GameObject:
  m_CorrespondingSourceObject: {fileID: 100000, guid: d12946cd1e95ea84885599e80b27b876,
    type: 3}
  m_PrefabInstance: {fileID: 2736524432791768299}
  m_PrefabAsset: {fileID: 0}
--- !u!65 &4033992886525785634
BoxCollider:
  m_ObjectHideFlags: 0
  m_CorrespondingSourceObject: {fileID: 0}
  m_PrefabInstance: {fileID: 0}
  m_PrefabAsset: {fileID: 0}
  m_GameObject: {fileID: 2736524432791734859}
  m_Material: {fileID: 0}
  m_IncludeLayers:
    serializedVersion: 2
    m_Bits: 0
  m_ExcludeLayers:
    serializedVersion: 2
    m_Bits: 0
  m_LayerOverridePriority: 0
  m_IsTrigger: 0
  m_ProvidesContacts: 0
  m_Enabled: 1
  serializedVersion: 3
  m_Size: {x: 0.4142999, y: 0.6907997, z: 0.41429982}
  m_Center: {x: 0, y: 0, z: 0}
--- !u!4 &2736524432791901803 stripped
Transform:
  m_CorrespondingSourceObject: {fileID: 400000, guid: d12946cd1e95ea84885599e80b27b876,
    type: 3}
  m_PrefabInstance: {fileID: 2736524432791768299}
  m_PrefabAsset: {fileID: 0}
